Evaluation;Matricule;Notes
1;14EFP006;8,5
1;14EFP010;9
1;14FPL02;9,5
1;14FPL09;10
1;14CP006;10,5
1;14FPL24;11
1;14EFP021;11,5
1;14EFP060;12
1;14FPL28;12,5
1;14EFP067;13
1;13GB004;13,5
1;14ECP040;14
1;14CP023;14,5
1;14EFP042;15
1;14EFP014;15,5
1;14FPL25;16
1;14EFP024;16,5
1;14FPL10;8,5
1;14CP001;9
1;14CP021;9,5
1;14EFP073;10
1;14CP010;10,5
1;14CP011;11
1;14EFP031;11,5
1;14EFP043;12
1;14CP007;12,5
1;14FPL26;13
1;14EFP025;13,5
1;14EFP003;14
1;14ECP045;14,5
1;14CP017;15
1;14CP016;15,5
1;14EFP044;16
1;14EFP040;16,5
1;14EFP005;8,5
1;14EFP045;9
1;14CP019;9,5
1;14EFP036;10
1;14EFP046;10,5
1;14EFP032;11
1;14EFP001;11,5
1;14ECP043;12
1;14FPL11;12,5
1;14EFP047;13
1;14FPL23;13,5
1;14CP013;14
1;14EFP048;14,5
1;14CP020;15
1;14CP014;15,5
1;14FPL27;16
1;14EFP063;16,5
1;14EFP034;8,5
1;14FPL12;9
1;14EFP065;9,5
1;14CP08;10
1;14FPL22;10,5
1;14FPL01;11
1;14CP022;11,5
1;14EFP004;12
1;13CP018;12,5
1;14FPL21;13
1;14CP018;13,5
1;14CP002;14
1;14CP026;14,5
1;14EFP049;15
1;14FPL13;15,5
1;14EFP016;16
1;14EFP050;16,5
1;14FPL19;8,5
1;14EFP002;9
1;14EFP072;9,5
1;14EFP051;10
1;14EFP033;10,5
1;14ECP042;11
1;14FPL04;11,5
1;14EFP052;12
1;14ECP044;12,5
1;14CP029;13
1;14CP003;13,5
1;14EFP022;14
1;14EFP053;14,5
1;14CP034;15
1;14ECP041;15,5
1;14EFP026;16
1;14FPL16;16,5
1;14EFP070;8,5
1;14FPL17;9
1;14EFP015;9,5
1;14EFP054;10
1;14FPL05;10,5
1;14EFP055;11
1;14CP004;11,5
1;14EFP018;12
1;14EFP009;12,5
1;14EFP056;13
1;14EFP057;13,5
1;14EFP064;14
1;14FPL18;14,5
1;14EFP028;15
1;14EFP058;15,5
1;14EFP011;16
1;14EFP059;16,5
1;14EFP037;8,5
1;14EFP038;9
1;14CP028;9,5
1;14FPL06;10
1;14FPL20;10,5
1;14FPL14;11
1;14FPL15;11,5
1;14EFP019;12
1;14EFP039;12,5
1;14CP024;13
1;14FPL07;13,5
1;14FPL08;14
1;14EFP061;14,5
1;14CP025;15
1;14EFP035;15,5
1;14EFP013;16
1;14FPL03;16,5
1;14EFP041;8,5
1;14CP008;9
1;14EFP023;9,5
1;14CP015;10
1;14EFP062;10,5
1;14EFP029;11
1;14EFP020;11,5
1;14CP005;12
1;14EFP017;12,5
1;14EFP012;13
1;14EFP071;13,5
1;14EFP008;14
