Evaluation;Matricule;Notes
3;14EFP006;10
3;14EFP010;12
3;14FPL02;11
3;14FPL09;8
3;14CP006;7,5
3;14FPL24;13
3;14EFP021;18
3;14EFP060;15
3;14FPL28;12
3;14EFP067;13
3;13GB004;13,5
3;14ECP040;10
3;14CP023;12
3;14EFP042;11
3;14EFP014;8
3;14FPL25;7,5
3;14EFP024;13
3;14FPL10;18
3;14CP001;15
3;14CP021;12
3;14EFP073;13
3;14CP010;13,5
3;14CP011;11
3;14EFP031;11,5
3;14EFP043;12
3;14CP007;12,5
3;14FPL26;13
3;14EFP025;13,5
3;14EFP003;14
3;14ECP045;14,5
3;14CP017;15
3;14CP016;15,5
3;14EFP044;16
3;14EFP040;10
3;14EFP005;12
3;14EFP045;11
3;14CP019;8
3;14EFP036;7,5
3;14EFP046;13
3;14EFP032;18
3;14EFP001;15
3;14ECP043;12
3;14FPL11;13
3;14EFP047;13,5
3;14FPL23;13,5
3;14CP013;14
3;14EFP048;14,5
3;14CP020;15
3;14CP014;15,5
3;14FPL27;16
3;14EFP063;16,5
3;14EFP034;10
3;14FPL12;12
3;14EFP065;11
3;14CP08;8
3;14FPL22;7,5
3;14FPL01;13
3;14CP022;18
3;14EFP004;15
3;13CP018;12
3;14FPL21;13
3;14CP018;13,5
3;14CP002;14
3;14CP026;14,5
3;14EFP049;15
3;14FPL13;15,5
3;14EFP016;16
3;14EFP050;16,5
3;14FPL19;8,5
3;14EFP002;9
3;14EFP072;9,5
3;14EFP051;10
3;14EFP033;10,5
3;14ECP042;11
3;14FPL04;11,5
3;14EFP052;12
3;14ECP044;12,5
3;14CP029;10
3;14CP003;12
3;14EFP022;11
3;14EFP053;8
3;14CP034;7,5
3;14ECP041;13
3;14EFP026;18
3;14FPL16;15
3;14EFP070;12
3;14FPL17;13
3;14EFP015;13,5
3;14EFP054;10
3;14FPL05;10,5
3;14EFP055;11
3;14CP004;11,5
3;14EFP018;10
3;14EFP009;12
3;14EFP056;11
3;14EFP057;8
3;14EFP064;7,5
3;14FPL18;13
3;14EFP028;18
3;14EFP058;15
3;14EFP011;12
3;14EFP059;13
3;14EFP037;13,5
3;14EFP038;9
3;14CP028;9,5
3;14FPL06;10
3;14FPL20;10,5
3;14FPL14;11
3;14FPL15;11,5
3;14EFP019;12
3;14EFP039;12,5
3;14CP024;13
3;14FPL07;13,5
3;14FPL08;14
3;14EFP061;10
3;14CP025;12
3;14EFP035;11
3;14EFP013;8
3;14FPL03;7,5
3;14EFP041;13
3;14CP008;18
3;14EFP023;15
3;14CP015;12
3;14EFP062;13
3;14EFP029;13,5
3;14EFP020;11,5
3;14CP005;12
3;14EFP017;12,5
3;14EFP012;13
3;14EFP071;13,5
3;14EFP008;14
